<?xml version="1.0" encoding="utf-8"?>
<!-- Made by https://michael.markie.co -->
<svg version="1.1" xmlns="http://www.w3.org/2000/svg" viewBox="0 0 1203.8 1000">
<path d="M202.4,502.8c0,0,2-32.9,8.7-44.1c6.7-11.2,35.6-30.7,60.2-35.1c24.6-4.5,89.3,48.1,89.3,48.1l108.8-108.8
	c0,0-40.7-61.1-49.7-119.3c0-152.2,67.2-170.1,232.8-241.8C482.5-20.6,283.2,171.9,283.2,171.9L137.7,317.4c0,0-6.7,29.1-22.4,40.3
	c-15.7,11.2-42.5,13.4-42.5,13.4s-73.9,71.6-64.9,67.2c-10.5,10.5-10.5,27.5,0,38.1l0,0l89.8,89.8c10.5,10.5,29.1,12.1,39.6,1.6"/>
<path d="M501.3,390.9l471.9,471.9c16.6,16.6,16.6,43.4,0,60l-49.7,49.7c-16.6,16.6-43.4,16.6-60,0L391.6,500.6"/>
<path d="M1011.4,261l91.8-29.1l60.4-105.2c0,0,80.6,42.5,13.4,199.2c-89.8,77.7-224.1,49-224.1,49L841.1,263l28-144.6"/>
<path d="M1065.8,73.4c-69.4-33.6-116.2,11.4-181.1,33.8l73.6,73.6L1065.8,73.4z"/>
<path d="M581.6,750.8L351.1,981.6c-16.6,16.6-43.4,16.6-60,0l-49.7-49.7c-16.6-16.6-16.6-43.4,0-60l230.6-230.6"/>
<rect x="661.6" y="363.3" transform="matrix(0.7071 -0.7071 0.7071 0.7071 -82.2296 683.2263)" width="244" height="155.1"/>
</svg>
