<?xml version="1.0" encoding="utf-8"?>
<!-- Made by https://michael.markie.co -->
<svg version="1.1" xmlns="http://www.w3.org/2000/svg" viewBox="0 0 1001.9 1000">
<path d="M0,999.7l307-102.2l683.7-683.7c14.9-15.6,14.9-40.1,0-55.7L843.8,11.2c-15.6-14.9-40.1-14.9-55.7,0L104.4,694.9L0,999.7z
	 M283.6,874.1L82.4,950.7c-6.7-13.6-17.6-24.5-31.2-31.2l77.7-200.2l19.4,69.7l62.3,62.3L283.6,874.1z"/>
</svg>
