<?xml version="1.0" encoding="utf-8"?>
<!-- Made by https://michael.markie.co -->
<svg version="1.1" xmlns="http://www.w3.org/2000/svg" viewBox="0 0 1131.9 1000">
<path d="M382.9,698.7c-74.7-0.8-135.2-61.3-136-136V225H136c-74.7,0.8-135.2,61.3-136,136v376.2c0,75.6,60.5,136,136,136v124.3
	l152.8-124.3h414.8c74.7-0.8,135.2-61.3,136-136v-5L796.1,697H382.9V698.7z"/>
<path d="M429.9,649.9h413.1l152.8,124.3V649.9c75.6,0,136-60.5,136-136V136c-0.8-74.7-61.3-135.2-136-136h-566
	c-74.7,0.8-135.2,61.3-136,136v377.9C294.7,588.6,355.2,649.1,429.9,649.9z"/>
</svg>
